-- Merging decision tree log ---
manifest
ADDED from D:\SQL_PHP_JSON\app\src\main\AndroidManifest.xml:2:1-37:12
	package
		ADDED from D:\SQL_PHP_JSON\app\src\main\AndroidManifest.xml:3:5-29
		INJECTED from D:\SQL_PHP_JSON\app\src\main\AndroidManifest.xml
		INJECTED from D:\SQL_PHP_JSON\app\src\main\AndroidManifest.xml
	android:versionName
		INJECTED from D:\SQL_PHP_JSON\app\src\main\AndroidManifest.xml
		INJECTED from D:\SQL_PHP_JSON\app\src\main\AndroidManifest.xml
	xmlns:android
		ADDED from D:\SQL_PHP_JSON\app\src\main\AndroidManifest.xml:2:11-69
	android:versionCode
		INJECTED from D:\SQL_PHP_JSON\app\src\main\AndroidManifest.xml
		INJECTED from D:\SQL_PHP_JSON\app\src\main\AndroidManifest.xml
uses-permission#android.permission.INTERNET
ADDED from D:\SQL_PHP_JSON\app\src\main\AndroidManifest.xml:5:5-67
	android:name
		ADDED from D:\SQL_PHP_JSON\app\src\main\AndroidManifest.xml:5:22-64
application
ADDED from D:\SQL_PHP_JSON\app\src\main\AndroidManifest.xml:7:5-35:19
MERGED from [com.android.support:appcompat-v7:23.1.1] D:\SQL_PHP_JSON\app\build\intermediates\exploded-aar\com.android.support\appcompat-v7\23.1.1\AndroidManifest.xml:22:5-20
MERGED from [com.android.support:support-v4:23.1.1] D:\SQL_PHP_JSON\app\build\intermediates\exploded-aar\com.android.support\support-v4\23.1.1\AndroidManifest.xml:22:5-20
MERGED from [com.android.support:design:23.1.1] D:\SQL_PHP_JSON\app\build\intermediates\exploded-aar\com.android.support\design\23.1.1\AndroidManifest.xml:22:5-20
MERGED from [com.android.support:appcompat-v7:23.1.1] D:\SQL_PHP_JSON\app\build\intermediates\exploded-aar\com.android.support\appcompat-v7\23.1.1\AndroidManifest.xml:22:5-20
MERGED from [com.android.support:support-v4:23.1.1] D:\SQL_PHP_JSON\app\build\intermediates\exploded-aar\com.android.support\support-v4\23.1.1\AndroidManifest.xml:22:5-20
MERGED from [com.android.support:support-v4:23.1.1] D:\SQL_PHP_JSON\app\build\intermediates\exploded-aar\com.android.support\support-v4\23.1.1\AndroidManifest.xml:22:5-20
MERGED from [com.android.support:support-v4:23.1.1] D:\SQL_PHP_JSON\app\build\intermediates\exploded-aar\com.android.support\support-v4\23.1.1\AndroidManifest.xml:22:5-20
	android:label
		ADDED from D:\SQL_PHP_JSON\app\src\main\AndroidManifest.xml:10:9-41
	android:supportsRtl
		ADDED from D:\SQL_PHP_JSON\app\src\main\AndroidManifest.xml:11:9-35
	android:allowBackup
		ADDED from D:\SQL_PHP_JSON\app\src\main\AndroidManifest.xml:8:9-35
	android:icon
		ADDED from D:\SQL_PHP_JSON\app\src\main\AndroidManifest.xml:9:9-43
	android:theme
		ADDED from D:\SQL_PHP_JSON\app\src\main\AndroidManifest.xml:12:9-40
activity#com.vigion.sql.AlunoAdd
ADDED from D:\SQL_PHP_JSON\app\src\main\AndroidManifest.xml:13:9-17:67
	android:label
		ADDED from D:\SQL_PHP_JSON\app\src\main\AndroidManifest.xml:15:13-45
	android:windowSoftInputMode
		ADDED from D:\SQL_PHP_JSON\app\src\main\AndroidManifest.xml:17:13-55
	android:theme
		ADDED from D:\SQL_PHP_JSON\app\src\main\AndroidManifest.xml:16:13-56
	android:name
		ADDED from D:\SQL_PHP_JSON\app\src\main\AndroidManifest.xml:14:13-37
activity#com.vigion.sql.AlunoListView
ADDED from D:\SQL_PHP_JSON\app\src\main\AndroidManifest.xml:18:9-27:20
	android:label
		ADDED from D:\SQL_PHP_JSON\app\src\main\AndroidManifest.xml:20:13-53
	android:theme
		ADDED from D:\SQL_PHP_JSON\app\src\main\AndroidManifest.xml:21:13-56
	android:name
		ADDED from D:\SQL_PHP_JSON\app\src\main\AndroidManifest.xml:19:13-42
intent-filter#android.intent.action.MAIN+android.intent.category.LAUNCHER
ADDED from D:\SQL_PHP_JSON\app\src\main\AndroidManifest.xml:22:13-26:29
action#android.intent.action.MAIN
ADDED from D:\SQL_PHP_JSON\app\src\main\AndroidManifest.xml:23:17-69
	android:name
		ADDED from D:\SQL_PHP_JSON\app\src\main\AndroidManifest.xml:23:25-66
category#android.intent.category.LAUNCHER
ADDED from D:\SQL_PHP_JSON\app\src\main\AndroidManifest.xml:25:17-77
	android:name
		ADDED from D:\SQL_PHP_JSON\app\src\main\AndroidManifest.xml:25:27-74
activity#com.vigion.sql.AlunoEdit
ADDED from D:\SQL_PHP_JSON\app\src\main\AndroidManifest.xml:28:9-34:20
	android:label
		ADDED from D:\SQL_PHP_JSON\app\src\main\AndroidManifest.xml:30:13-62
	android:windowSoftInputMode
		ADDED from D:\SQL_PHP_JSON\app\src\main\AndroidManifest.xml:31:13-55
	android:theme
		ADDED from D:\SQL_PHP_JSON\app\src\main\AndroidManifest.xml:32:13-56
	android:name
		ADDED from D:\SQL_PHP_JSON\app\src\main\AndroidManifest.xml:29:13-38
uses-sdk
INJECTED from D:\SQL_PHP_JSON\app\src\main\AndroidManifest.xml reason: use-sdk injection requested
MERGED from [com.android.support:appcompat-v7:23.1.1] D:\SQL_PHP_JSON\app\build\intermediates\exploded-aar\com.android.support\appcompat-v7\23.1.1\AndroidManifest.xml:20:5-43
MERGED from [com.android.support:support-v4:23.1.1] D:\SQL_PHP_JSON\app\build\intermediates\exploded-aar\com.android.support\support-v4\23.1.1\AndroidManifest.xml:20:5-43
MERGED from [com.android.support:design:23.1.1] D:\SQL_PHP_JSON\app\build\intermediates\exploded-aar\com.android.support\design\23.1.1\AndroidManifest.xml:20:5-43
MERGED from [com.android.support:appcompat-v7:23.1.1] D:\SQL_PHP_JSON\app\build\intermediates\exploded-aar\com.android.support\appcompat-v7\23.1.1\AndroidManifest.xml:20:5-43
MERGED from [com.android.support:support-v4:23.1.1] D:\SQL_PHP_JSON\app\build\intermediates\exploded-aar\com.android.support\support-v4\23.1.1\AndroidManifest.xml:20:5-43
MERGED from [com.android.support:recyclerview-v7:23.1.1] D:\SQL_PHP_JSON\app\build\intermediates\exploded-aar\com.android.support\recyclerview-v7\23.1.1\AndroidManifest.xml:20:5-43
MERGED from [com.android.support:support-v4:23.1.1] D:\SQL_PHP_JSON\app\build\intermediates\exploded-aar\com.android.support\support-v4\23.1.1\AndroidManifest.xml:20:5-43
MERGED from [com.android.support:support-v4:23.1.1] D:\SQL_PHP_JSON\app\build\intermediates\exploded-aar\com.android.support\support-v4\23.1.1\AndroidManifest.xml:20:5-43
	android:targetSdkVersion
		INJECTED from D:\SQL_PHP_JSON\app\src\main\AndroidManifest.xml
		INJECTED from D:\SQL_PHP_JSON\app\src\main\AndroidManifest.xml
	android:minSdkVersion
		INJECTED from D:\SQL_PHP_JSON\app\src\main\AndroidManifest.xml
		INJECTED from D:\SQL_PHP_JSON\app\src\main\AndroidManifest.xml
